\select@language {english}
\contentsline {chapter}{\numberline {1}modules}{3}{chapter.1}
\contentsline {chapter}{\numberline {2}stathat module}{5}{chapter.2}
\contentsline {chapter}{\numberline {3}print\_bpmn module}{7}{chapter.3}
\contentsline {chapter}{\numberline {4}Indices and tables}{9}{chapter.4}
