\relax 
\providecommand\hyper@newdestlabel[2]{}
\providecommand\HyperFirstAtBeginDocument{\AtBeginDocument}
\HyperFirstAtBeginDocument{\ifx\hyper@anchor\@undefined
\global\let\oldcontentsline\contentsline
\gdef\contentsline#1#2#3#4{\oldcontentsline{#1}{#2}{#3}}
\global\let\oldnewlabel\newlabel
\gdef\newlabel#1#2{\newlabelxx{#1}#2}
\gdef\newlabelxx#1#2#3#4#5#6{\oldnewlabel{#1}{{#2}{#3}}}
\AtEndDocument{\ifx\hyper@anchor\@undefined
\let\contentsline\oldcontentsline
\let\newlabel\oldnewlabel
\fi}
\fi}
\global\let\hyper@last\relax 
\gdef\HyperFirstAtBeginDocument#1{#1}
\providecommand\HyField@AuxAddToFields[1]{}
\providecommand\HyField@AuxAddToCoFields[2]{}
\select@language{english}
\@writefile{toc}{\select@language{english}}
\@writefile{lof}{\select@language{english}}
\@writefile{lot}{\select@language{english}}
\newlabel{index::doc}{{}{1}{}{section*.2}{}}
\@writefile{toc}{\contentsline {chapter}{\numberline {1}modules}{3}{chapter.1}}
\@writefile{lof}{\addvspace {10\p@ }}
\@writefile{lot}{\addvspace {10\p@ }}
\@writefile{loliteral-block}{\addvspace {10\p@ }}
\newlabel{modules:welcome-to-nog-bpmn-diagram-s-documentation}{{1}{3}{modules}{chapter.1}{}}
\newlabel{modules::doc}{{1}{3}{modules}{chapter.1}{}}
\newlabel{modules:modules}{{1}{3}{modules}{chapter.1}{}}
\@writefile{toc}{\contentsline {chapter}{\numberline {2}stathat module}{5}{chapter.2}}
\@writefile{lof}{\addvspace {10\p@ }}
\@writefile{lot}{\addvspace {10\p@ }}
\@writefile{loliteral-block}{\addvspace {10\p@ }}
\newlabel{stathat::doc}{{2}{5}{stathat module}{chapter.2}{}}
\newlabel{stathat:stathat-module}{{2}{5}{stathat module}{chapter.2}{}}
\@writefile{toc}{\contentsline {chapter}{\numberline {3}print\_bpmn module}{7}{chapter.3}}
\@writefile{lof}{\addvspace {10\p@ }}
\@writefile{lot}{\addvspace {10\p@ }}
\@writefile{loliteral-block}{\addvspace {10\p@ }}
\newlabel{print_bpmn::doc}{{3}{7}{print\_bpmn module}{chapter.3}{}}
\newlabel{print_bpmn:print-bpmn-module}{{3}{7}{print\_bpmn module}{chapter.3}{}}
\@writefile{toc}{\contentsline {chapter}{\numberline {4}Indices and tables}{9}{chapter.4}}
\@writefile{lof}{\addvspace {10\p@ }}
\@writefile{lot}{\addvspace {10\p@ }}
\@writefile{loliteral-block}{\addvspace {10\p@ }}
\newlabel{index:indices-and-tables}{{4}{9}{Indices and tables}{chapter.4}{}}
